{
	"jp": 
	{
        "subject":  "バンジージャパン　・　ご予約内容をご確認ください",
        "url_1":  "http://minakami.bungyjapan.com/bookings/thankyou.php?passkey=",
        "return_address_1":  "minakami@bungyjapan.com",
        "content_1":  "注意：　まだ予約は完了しておりません。<BR><BR> この度は、バンジージャパンへお申し込みいただきありがとうございます。<BR> 以下の内容をご確認ください。<BR><BR> ご予約内容が正しい場合は、内容の後にあるリンクをクリックすると、ご予約が確定されます。<BR><BR> <BR> 【場所】 　群馬県みなかみ町　（４２ｍ）<BR><BR>【料金】  １回目１０，０００円<BR><BR> 【予約日】 {EMAIL_BOOK_DATE} <BR><BR> 【集合時間】 {EMAIL_BOOK_TIME}<BR><BR> 【予約人数】  {EMAIL_JUMP_NUMBER}人<BR><BR> 【ご予約代表者名】 {EMAIL_CUSTOMER_NAME} 様<BR><BR> ご予約内容が正しければ下のリンクをクリックしてください：<BR><BR> <a href = '{EMAIL_CONFIRMATION_LINK}'>{EMAIL_CONFIRMATION_LINK}</a><BR><BR>このリンクからは確定した予約を確認できません。<BR>予約確認は、お早めにコールセンター(0278-72-8133)までお問い合わせください。<BR>間違いがある場合はお手数ですが www.bungyjapan.com に戻って始めからやり直してください。<BR><BR> 【集合場所】<BR> 〒379-1612<BR> 群馬県利根郡みなかみ町小日向143<BR><BR> ※お車の場合は「みなかみの森」バンジー専用駐車場をご利用ください。受付から徒歩2分程度です（無料）。<BR><BR> 問い合わせ： 0278-72-8133　※こちらはコールセンターです。サイトの電話番号ではありません。<BR> 対応時間：　　08：30～17：30",
        "url_2":  "http://sarugakyo.bungyjapan.com/bookings/thankyou.php?passkey=",
        "return_address_2":  "sarugakyo@bungyjapan.com",
        "content_2":  "この度は、バンジージャパンへお申し込みいただきありがとうございます。<br> 以下の内容をご確認ください。<br> <br> ご予約内容が正しい場合は、内容の後にあるリンクをクリックすると、ご予約が確定されます。<br> <br> <br> 【場所】 　群馬県猿ヶ京温泉　（６２ｍ）<br><br>【料金】  １回目１2,000円 <br><br> 【予約日】 {EMAIL_BOOK_DATE}<br> <br> 【集合時間】 {EMAIL_BOOK_TIME}<br> <br> 【予約人数】  {EMAIL_JUMP_NUMBER}人<br> <br> 【ご予約代表者名】 {EMAIL_CUSTOMER_NAME} 様<br> <br> <br> ご予約内容が正しければ下のリンクをクリックしてください。<br> <br><a href = '{EMAIL_CONFIRMATION_LINK}'>{EMAIL_CONFIRMATION_LINK}</a><br><BR>このリンクからは確定した予約を確認できません。<BR>予約確認は、お早めにコールセンター(0278-72-8133)までお問い合わせください。 <br> 間違いがある場合はお手数ですが www.bungyjapan.com に戻って始めからやり直してください。<br> <br> 【集合場所】<br> 〒３７９－１４０４<br> 群馬県利根郡みなかみ町相俣１７３１<br> バンジージャパン<br> <br> 問い合わせ： 0278-72-8133　※こちらはコールセンターです。サイトの電話番号ではありません。<br> 対応時間：　　08：30～17：30<br> <br> お車で：<br> 練馬Ｉ．Ｃ⇒関越道・月夜野Ｉ．Ｃ（約1時間20分）　・・・　月夜野Ｉ．Ｃ⇒猿ヶ京バンジー（約20分）<br> *料金所を出て17号を猿ヶ京方面に向かいます。左手にローソンが見えたら、その先約500ｍの右手にある道を入ります。<br> <br> 新幹線で：<br> 東京駅⇒上毛高原駅（約1時間10分）　・・・　バス（猿ヶ京行）　・・・　ローソンの前で下車⇒猿ヶ京バンジー（徒歩10分）<br> *ローソンの先、約500ｍの右手にある道を入ります。",
        "url_3":  "http://ryujin.bungyjapan.com/bookings/thankyou.php?passkey=",
        "return_address_3":  "ryujin@bungyjapan.com",
        "content_3":  "この度は、バンジージャパンへお申し込みいただきありがとうございます。<br> 以下の内容をご確認ください。<br> <br> ご予約内容が正しい場合は、内容の後にあるリンクをクリックすると、ご予約が確定されます。<br> <br> <br> 【場所】 　茨城県常陸太田市　（１００ｍ）<br><br>【料金】  １回目１7,000円 <br><br> 【予約日】 {EMAIL_BOOK_DATE}<br> <br> 【集合時間】 {EMAIL_BOOK_TIME}<br> <br> 【予約人数】 {EMAIL_JUMP_NUMBER}人  <br>                    <br> 【ご予約代表者名】 {EMAIL_CUSTOMER_NAME} 様<br> <br> <br> ご予約内容が正しければこちらをクリックしてください：<br> <br><a href = '{EMAIL_CONFIRMATION_LINK}'>{EMAIL_CONFIRMATION_LINK}</a><br><BR>このリンクからは確定した予約を確認できません。<BR>予約確認は、お早めにコールセンター(0278-72-8133)までお問い合わせください。 <br> 間違いがある場合はお手数ですが www.bungyjapan.com に戻って始めからやり直してください。<br>  <br> 【集合場所】<br> 〒313-0351<br> 茨城県常陸太田市天下野町2133-6<br> バンジージャパン                        <br> <br> ご注意下さい：秋の紅葉祭で、サイトは非常に混雑するため、上部の駐車場は満車となる事が予想されます。少なくともご予約時間の３０分前には到着して、第４駐車場に駐車をし、歩いて受付までお越し下さい。<br> <br> 問い合わせ： 0278-72-8133　※こちらはコールセンターです。サイトの電話番号ではありません。<br> 対応時間：　　08：30～17：30                  ",
        "url_4":  "http://itsuki.bungyjapan.com/bookings/thankyou.php?passkey=",
        "return_address_4":  "itsuki@bungyjapan.com",
        "content_4":  "この度は、バンジージャパンへお申し込みいただきありがとうございます。<br>以下の内容をご確認ください。<br><br>ご予約内容が正しい場合は、内容の後にあるリンクをクリックすると、ご予約が確定されます。<br><br><br>【場所】 　熊本県五木村　(66m)<br><br>【料金】  １回目１3,000円 <br><br>【予約日】 {EMAIL_BOOK_DATE}<br><br>【集合時間】 {EMAIL_BOOK_TIME}<br><br>【予約人数】  {EMAIL_JUMP_NUMBER}人<br><br>【ご予約代表者名】 {EMAIL_CUSTOMER_NAME} 様<br><br><br>ご予約内容が正しければ下のリンクをクリックしてください。<br><br><a href = '{EMAIL_CONFIRMATION_LINK}'>{EMAIL_CONFIRMATION_LINK}</a><br><BR>このリンクからは確定した予約を確認できません。<BR>予約確認は、お早めにコールセンター(0278-72-8133)までお問い合わせください。<br>間違いがある場合はお手数ですが www.bungyjapan.com に戻って始めからやり直してください。<br><br>【集合場所】<br>〒862-8570<br>熊本県球磨郡五木村甲2672－8<br>バンジージャパン<br><br>問い合わせ： 0278-72-8133　※こちらはコールセンターです。サイトの電話番号ではありません。<br>対応時間：　　08：30～17：30<br>",
        "url_9":  "http://yamba.bungyjapan.com/bookings/thankyou.php?passkey=",
        "return_address_9":  "yamba@bungyjapan.com",
        "content_9":  "この度は、バンジージャパンへお申し込みいただきありがとうございます。<br>以下の内容をご確認ください。<br><br>ご予約内容が正しい場合は、内容の後にあるリンクをクリックすると、ご予約が確定されます。<br><br><br>【場所】 　群馬県長野原町　（１０６ｍ）<br><br>【料金】  １回目１1,000円 <br><br>【予約日】 {EMAIL_BOOK_DATE} <br><br>【集合時間】 {EMAIL_BOOK_TIME}<br><br>【予約人数】  {EMAIL_JUMP_NUMBER}人<br><br>【ご予約代表者名】 {EMAIL_CUSTOMER_NAME} 様<br><br><br>ご予約内容が正しければ下のリンクをクリックしてください：<br><br><a href = '{EMAIL_CONFIRMATION_LINK}'>{EMAIL_CONFIRMATION_LINK}</a><br><BR>このリンクからは確定した予約を確認できません。<BR>予約確認は、お早めにコールセンター(0278-72-8133)までお問い合わせください。<br>間違いがある場合はお手数ですが www.bungyjapan.com に戻って始めからやり直してください。<br><br>【集合場所】<br>〒377-1301<br>群馬県吾妻郡長野原町川原畑　八ッ場大橋　<br><br>※お車の場合は「八ッ場大橋」専用駐車場をご利用ください。（無料）。<br><br><br>問い合わせ： 0278-72-8133　※こちらはコールセンターです。サイトの電話番号ではありません。<br>対応時間：　　08：30～17：30",
        "url_10":  "http://kaiun.bungyjapan.com/bookings/thankyou.php?passkey=",
        "return_address_10":  "kaiun@bungyjapan.com",
        "content_10":  "この度は、バンジージャパンへお申し込みいただきありがとうございます。<br>以下の内容をご確認ください。<br><br>ご予約内容が正しい場合は、内容の後にあるリンクをクリックすると、ご予約が確定されます。<br><br><br>【場所】 　奈良県平群町　（３０ｍ）<br><br>【料金】  １回目１0,000円 <br><br>【予約日】 {EMAIL_BOOK_DATE}<br><br>【集合時間】 {EMAIL_BOOK_TIME}<br><br>【予約人数】  {EMAIL_JUMP_NUMBER}人<br><br>【ご予約代表者名】 {EMAIL_CUSTOMER_NAME} 様<br><br><br>ご予約内容が正しければ下のリンクをクリックしてください。<br><br><a href = '{EMAIL_CONFIRMATION_LINK}'>{EMAIL_CONFIRMATION_LINK}</a><br><BR>このリンクからは確定した予約を確認できません。<BR>予約確認は、お早めにコールセンター(0278-72-8133)までお問い合わせください。<br>間違いがある場合はお手数ですが www.bungyjapan.com に戻って始めからやり直してください。<br><br>【集合場所】<br>〒636-0832 奈良県生駒郡三郷町信貴山西1190-20  バンジージャパン<br><br>問い合わせ： 0278-72-8133　※こちらはコールセンターです。サイトの電話番号ではありません。<br>対応時間：　　08：30?17：30<br><br>お車で：<br>近畿自動車道　⇒　東大阪JCT・・・第二坂奈有料道路(国道308)　(10km)　⇒　壱分IC・・・国道168　(8km)　⇒　勢野・・・国道236　(3.9km)　⇒　信貴山(橋を渡らず、直進方向に駐車場があります)<br><br>電車・バスで：<br>奈良駅又は大阪駅　⇒　王寺駅（約15分又は40分）　・・・　バス（信貴山門行）　・・・　「信貴大橋」で下車　⇒　奈良バンジー（徒歩2分） ＊道路の向かい側（右手）にある道を入ります。",
        "url_12":  "http://fuji.bungyjapan.com/bookings/thankyou.php?passkey=",
        "return_address_12":  "fuji@bungyjapan.com",
        "content_12":  "この度は、バンジージャパンへお申し込みいただきありがとうございます。<br>以下の内容をご確認ください。<br><br>ご予約内容が正しい場合は、内容の後にあるリンクをクリックすると、ご予約が確定されます。<br><br><br>【場所】 　静岡県富士市　（54ｍ）<br><br>【料金】  １回目11,000円 <br><br>【予約日】 {EMAIL_BOOK_DATE}<br><br>【集合時間】 {EMAIL_BOOK_TIME}<br><br>【予約人数】 {EMAIL_JUMP_NUMBER}人  <br>                <br>【ご予約代表者名】 {EMAIL_CUSTOMER_NAME} 様<br><br><br>ご予約内容が正しければこちらをクリックしてください：<br><br><a href = '{EMAIL_CONFIRMATION_LINK}'>{EMAIL_CONFIRMATION_LINK}</a><br><BR>このリンクからは確定した予約を確認できません。<BR>予約確認は、お早めにコールセンター(0278-72-8133)までお問い合わせください。<br>間違いがある場合はお手数ですが www.bungyjapan.com に戻って始めからやり直してください。<br><br>富士市須津渓谷橋<br>https://goo.gl/maps/T163GuPRLnH2<br><br><br>問い合わせ： 0278-72-8133　※こちらはコールセンターです。サイトの電話番号ではありません。<br>対応時間：　08：30～17：30      <br>      <br><br>駐車場は台数に限りがございます。時間に余裕を持ち、受付までお越し下さい。<br><br>お問い合わせ： 0278-72-8133　※こちらはコールセンターです。サイトの電話番号ではありません。<br>対応時間：　　08：30～17:30",
        "url_13":  "http://gifu.bungyjapan.com/bookings/thankyou.php?passkey=",
        "return_address_13":  "gifu@bungyjapan.com",
        "content_13":  "注意：　まだ予約は完了しておりません。<br><br> この度は、バンジージャパンへお申し込みいただきありがとうございます。<br> 以下の内容をご確認ください。<br> <br> ご予約内容が正しい場合は、内容の後にあるリンクをクリックすると、ご予約が確定されます。<br><br>【場所】 　岐阜県加茂郡八百津町　（２１５ｍ）<br><br>【料金】  １回目20,000円 <br><span style='padding-left:55px;'>2021年2月1日より１回目25,000円</span><br><br> 【予約日】 {EMAIL_BOOK_DATE}<br> <br> 【集合時間】 {EMAIL_BOOK_TIME}<br> <br> 【予約人数】 {EMAIL_JUMP_NUMBER}人  <br><br> 【ご予約代表者名】 {EMAIL_CUSTOMER_NAME} 様　<br><br><br> ご予約内容が正しければこちらをクリックしてください：<br> <br><a href = '{EMAIL_CONFIRMATION_LINK}'>{EMAIL_CONFIRMATION_LINK}</a><br><BR>このリンクからは確定した予約を確認できません。<BR>予約確認は、お早めにコールセンター(0278-72-8133)までお問い合わせください。 <br> 間違いがある場合はお手数ですが www.bungyjapan.com に戻って始めからやり直してください。<br>  <br> 【集合場所】<br> 〒505-0301<br> 岐阜県加茂郡八百津町八百津町173-3　新旅足橋<br>ぎふけん　かもぐん　やおつちょう　やおつちょう　しんたびそこばし <br> <br> ※仮受付場所リンク　<br><a href='https://goo.gl/maps/aw6cnS5DCRkaHtys9' target='_blank'> https://goo.gl/maps/aw6cnS5DCRkaHtys9</a> <br>※ストリートビュー <br> <a href='https://goo.gl/maps/9S5cbkVahqhsJewu9' target='_blank'> https://goo.gl/maps/9S5cbkVahqhsJewu9 </a> <br> ※新旅足橋 <br> <a href='https://goo.gl/maps/nvTq696Y2n7kmyXB9' target='_blank'> https://goo.gl/maps/nvTq696Y2n7kmyXB9 </a> <br><br> 問い合わせ： 0278-72-8133　※こちらはコールセンターです。サイトの電話番号ではありません。<br> 対応時間：　08：30～17：30 "
	},
    "en": 
	{
        "subject":  "Bungy Japan Booking - Confirmation Required",
        "url_1":  "http://minakami.bungyjapan.com/bookings/thankyou.php?lang=en&passkey=",
        "return_address_1":  "minakami@bungyjapan.com",
        "content_1":  "Thank you very much for registering with Bungy Japan, however PLEASE NOTE THAT YOUR BOOKING IS NOT YET COMPLETE.<BR><BR>Please check the details of your booking as they appear below and, if correct, click on the link provided below to complete your booking.<BR><BR>If there is an error or you would like to make changes to your booking details, please DO NOT click on the link provided below. Simply delete this email and return to http://www.bungyjapan.com to make a new booking.<BR><BR>Booking Site: Minakami, Gunma (42 m)<BR>First Jump ¥10,000<BR><BR>Booking Date :  {EMAIL_BOOK_DATE}<BR><BR>Booking Time : {EMAIL_BOOK_TIME}<BR><BR>No. of Jumpers : {EMAIL_JUMP_NUMBER}<BR><BR>Name : {EMAIL_CUSTOMER_NAME}<BR><BR>If the above information is correct, please click on the link below to complete your booking：<BR><BR><a href = '{EMAIL_CONFIRMATION_LINK}'>{EMAIL_CONFIRMATION_LINK}</a><BR><BR>You cannot confirm the confirmed booking from this link.<BR> Please contact the call center as soon as possible to confirm your booking.<BR><BR>Our Location:<BR>143 Obinata, Minakami-machi, Tone-gun, Gunma-ken, 379-1612<BR><BR>〒３７９－１６１２<BR>群馬県利根郡みなかみ町小日向143<BR>バンジージャパン<BR><BR>Phone:  0278-72-8133<BR>Office Hours: 08：30～17：30<BR><BR>If you are coming by car, simply exit at the Minakami IC, turn left at the lights and follow the road to the big, white bridge. Free parking is available around the corner from our office at Minakami no Mori ( みなかみの森 ).",
        "url_2":  "http://sarugakyo.bungyjapan.com/bookings/thankyou.php?lang=en&passkey=",
        "return_address_2":  "sarugakyo@bungyjapan.com",
        "content_2":  "Thank you very much for registering with Bungy Japan, however PLEASE NOTE THAT YOUR BOOKING IS NOT YET COMPLETE.<br> <br> Please check the details of your booking as they appear below and, if correct, click on the link provided below to complete your booking.<br> <br> If there is an error or you would like to make changes to your booking details, please DO NOT click on the link provided below. Simply delete this email and return to http://www.bungyjapan.com to make a new booking.<br> <br> <br> Jump Site:  Sarugakyo Onsen, Gunma  （62 m) <br>First Jump ¥12,000 <br><br> Booking Date :  {EMAIL_BOOK_DATE}<br> <br> Booking Time : {EMAIL_BOOK_TIME}<br> <br> No. of Jumpers : {EMAIL_JUMP_NUMBER}<br> <br> Name : {EMAIL_CUSTOMER_NAME}<br> <br> <br> If the above information is correct, please click on the link below to complete your booking:<br> <br><a href = '{EMAIL_CONFIRMATION_LINK}'>{EMAIL_CONFIRMATION_LINK}</a><br><BR>You cannot confirm the confirmed booking from this link.<BR> Please contact the call center as soon as possible to confirm your booking.<BR><br> Our Location:<br> 143 Obinata, Minakami-machi, Tone-gun, Gunma-ken, 379-1612<br> <br> 〒３７９－１４０４<br> 群馬県利根郡みなかみ町相俣１７３１<br> バンジージャパン<br> <br> Phone:  0278-72-8133<br> Office Hours: 08：30～17：30<br>      <br> If you are coming by car, simply exit off of the Kanetsu Expressway at the Tsukiyono I.C. and take Route 17 to Sarugakyo.  After arriving in Sarugakyo, you will pass a Lawson convenience store on your left-hand side.  Look for the entrance to Bungy Japan's driveway on the right-hand side about 500 m past Lawson.  It is directly opposite the Kokyo Ryokan ( 湖 郷 ).<br> <br> If coming by bullet train, ride the Joetsu Shinkansen Line (上越新幹線) to the Jomo Kogen Station (上毛高原駅).  At the station, board a bus headed for Sarugakyo Onsen (猿ヶ京行).  Disembark at the bus stop in front of the Lawson convenience store and continue on foot, in the same direction as the bus was travelling, for about 500 m (10 minutes).  Look for the entrance to Bungy Japan's driveway on the right-hand side, directly opposite the Kokyo Ryokan ( 湖 郷 ).",
        "url_3":  "http://ryujin.bungyjapan.com/bookings/thankyou.php?lang=en&passkey=",
        "return_address_3":  "ryujin@bungyjapan.com",
        "content_3":  "Thank you very much for registering with Bungy Japan, however PLEASE NOTE THAT YOUR BOOKING IS NOT YET COMPLETE.<br> <br> Please check the details of your booking as they appear below and, if correct, click on the link provided below to complete your booking.<br> <br> If there is an error or you would like to make changes to your booking details, please DO NOT click on the link provided below. Simply delete this email and return to http://www.bungyjapan.com to make a new booking.<br> <br> <br> Booking Site: Hitachi-Ota, Ibaraki (100 m)<br>First Jump ¥17,000 <br><br> Booking Date : {EMAIL_BOOK_DATE} <br> <br> Booking Time : {EMAIL_BOOK_TIME}<br> <br> No. of Jumpers : {EMAIL_JUMP_NUMBER}<br> <br> Name : {EMAIL_CUSTOMER_NAME}<br>                         <br> <br> If the above information is correct, please click on this link to complete your booking：<br> <br><a href = '{EMAIL_CONFIRMATION_LINK}'>{EMAIL_CONFIRMATION_LINK}</a><br><BR>You cannot confirm the confirmed booking from this link.<BR> Please contact the call center as soon as possible to confirm your booking.<BR><BR>You cannot confirm the confirmed booking from this link.<BR> Please contact the call center as soon as possible to confirm your booking.<BR><br> Our Location: 2133-6 Kenganocho, HitachiOta-Shi, Ibaraki Prefecture 〒313-0351        <br>                       <br>                         〒313-0351          <br>                         茨城県常陸太田市天下野町2133-6    <br>                         バンジージャパン   <br> <br> Phone:  0278-72-8133<br> Office Hours: 08：30～17：30<br> <br> <br> Check out our location on Google Maps!<br> <br> https://maps.google.com/maps?q=%E6%97%A5%E6%9C%AC%E8%8C%A8%E5%9F%8E%E7%9C%8C%E5%B8%B8%E9%99%B8%E5%A4%AA%E7%94%B0%E5%B8%82%E5%A4%A9%E4%B8%8B%E9%87%8E%E7%94%BA%EF%BC%92%EF%BC%91%EF%BC%93%EF%BC%93%E2%88%92%EF%BC%96+%E7%AB%9C%E7%A5%9E%E5%A4%A7%E5%90%8A%E6%A9%8B&hl=en&ie=UTF8&ll=36.688519,140.466042&spn=0.079702,0.154324&sll=37.0625,-95.677068&sspn=40.188298,79.013672&oq=%E3%82%8A%E3%82%85%E3%81%86%E3%81%98%E3%82%93%E3%81%8A%E3%81%8A%E3%81%A4&hq=%EF%BC%92%EF%BC%91%EF%BC%93%EF%BC%93%E2%88%92%EF%BC%96+%E7%AB%9C%E7%A5%9E%E5%A4%A7%E5%90%8A%E6%A9%8B&hnear=Keganocho,+Hitachiota,+Ibaraki+Prefecture,+Japan&t=m&z=13&iwloc=A               <br>",
        "url_4":  "http://itsuki.bungyjapan.com/bookings/thankyou.php?lang=en&passkey=",
        "return_address_4":  "itsuki@bungyjapan.com",
        "content_4":  "Bungy Japan Booking - Confirmation Required Thank you very much for registering with Bungy Japan, however PLEASE NOTE THAT YOUR BOOKING IS NOT YET COMPLETE.<br> <br> Please check the details of your booking as they appear below and, if correct, click on the link provided below to complete your booking.<br> <br> If there is an error or you would like to make changes to your booking details, please DO NOT click on the link provided below. Simply delete this email and return to http://www.bungyjapan.com to make a new booking.<br> <br> <br> Jump Site:  Itsukimura, Kumamoto  (77 m) <br>First Jump ¥13,000<br><br> Booking Date :  {EMAIL_BOOK_DATE}<br> <br> Booking Time : {EMAIL_BOOK_TIME}<br> <br> No. of Jumpers : {EMAIL_JUMP_NUMBER}<br> <br> Name : {EMAIL_CUSTOMER_NAME}<br> <br> <br> If the above information is correct, please click on the link below to complete your booking:<br> <br><a href = '{EMAIL_CONFIRMATION_LINK}'>{EMAIL_CONFIRMATION_LINK}</a><br><BR>You cannot confirm the confirmed booking from this link.<BR> Please contact the call center as soon as possible to confirm your booking.<BR><br> Our Location:<br> 2672-8 Ko, Itsuki-mura, Kuma-gun, Kumamoto-ken, 〒862-8570<br> <br> 〒862-8570<br> 熊本県球磨郡五木村甲2672－8<br> バンジージャパン<br> <br> Phone:  0278-72-8133<br> Office Hours: 08：30～17：30",
        "url_9":  "http://yamba.bungyjapan.com/bookings/thankyou.php?lang=en&passkey=",
        "return_address_9":  "yamba@bungyjapan.com",
        "content_9":  "Bungy Japan Booking - Confirmation Required Thank you very much for registering with Bungy Japan, however PLEASE NOTE THAT YOUR BOOKING IS NOT YET COMPLETE.<br> <br> Please check the details of your booking as they appear below and, if correct, click on the link provided below to complete your booking.<br> <br> If there is an error or you would like to make changes to your booking details, please DO NOT click on the link provided below. Simply delete this email and return to http://www.bungyjapan.com to make a new booking.<br> <br> Booking Site: Naganohara, Gunma (45 m)<br>First Jump ¥11,000<br><br> Booking Date :  {EMAIL_BOOK_DATE}<br> <br> Booking Time : {EMAIL_BOOK_TIME}<br> <br> No. of Jumpers : {EMAIL_JUMP_NUMBER}<br> <br> Name : {EMAIL_CUSTOMER_NAME}<br> <br> <br> If the above information is correct, please click on the link below to complete your booking：<br> <br><a href = '{EMAIL_CONFIRMATION_LINK}'>{EMAIL_CONFIRMATION_LINK}</a><br><BR>You cannot confirm the confirmed booking from this link.<BR> Please contact the call center as soon as possible to confirm your booking.<BR><br> Our Location:<br> Yamba Ohashi, Kawarabata, Naganohara-machi, Agatsuma-gun, Gunma-ken, 377-1301<br> <br> <br> Phone:  0278-72-8133<br> Office Hours: 08：30～17：30<br> <br> If you are traveling by car, please use the 'Yamba Ohashi' parking lot. (free).<br> <br> ",
        "url_10":  "http://kaiun.bungyjapan.com/bookings/thankyou.php?lang=en&passkey=",
        "return_address_10":  "kaiun@bungyjapan.com",
        "content_10":  "Bungy Japan Booking - Confirmation Required PLEASE NOTE THAT YOUR BOOKING IS NOT YET COMPLETE.<br> <br> Please check the details of your booking as they appear below and, if correct, click on the link provided below to complete your booking.<br> <br> If there is an error or you would like to make changes to your booking details, please DO NOT click on the link provided below. Simply delete this email and return to http://www.bungyjapan.com to make a new booking.<br> <br> <br> Jump Site:  Heiguri-cho, Nara  （30 m) <br>First Jump ¥10,000<br><br> Booking Date :  {EMAIL_BOOK_DATE}<br> <br> Booking Time : {EMAIL_BOOK_TIME}<br> <br> No. of Jumpers : {EMAIL_JUMP_NUMBER}<br> <br> Name : {EMAIL_CUSTOMER_NAME}<br> <br> <br> If the above information is correct, please click on the link below to complete your booking:<br> <br> <a href = '{EMAIL_CONFIRMATION_LINK}'>{EMAIL_CONFIRMATION_LINK}</a><br><BR>You cannot confirm the confirmed booking from this link.<BR> Please contact the call center as soon as possible to confirm your booking.<BR><br> Our Location:<br> 〒636-0923 Nara-ken, Ikoma-gun, Heiguri-cho, Shigisan 2280−1  <br> <br> 〒636-0923 奈良県生駒郡平群町信貴山2280−1<br> バンジージャパン<br> <br> Phone:  0278-72-8133<br> Office Hours: 08：30～17：30<br>      <br> If coming by car, exit off of the Kinki Expressway at the Higashi Osaka JCT (東大阪JCT) and take the toll road (Route 308) about 10km to Ichibu exit (壱分IC).   Head south on Route 168 for about 8km until you reach the Seino intersection (勢野). Turn right onto Route 236 and continue on for 3.9km until you arrive at the Shigisan neighborhood in Heiguri-cho where the road crosses the river.  Do not head left across the river, but proceed straight ahead into the parking area.<br> <br> If coming by express train, ride the Yamatoji Line (大和路線) from either the Nara Station (15 min.) or Osaka Station (40 min.) to the Oji Station (王寺駅).  At the station, board a bus headed for Shigisanmon (信貴山門行).  After riding the bus for about 20+ minutes, disembark at the Shigi Ohashi (信貴大橋) bus stop and continue on foot down the road on the right for about 60 m.  Look for the Nara Bungy reception on the left-hand side.",
        "url_12":  "http://fuji.bungyjapan.com/bookings/thankyou.php?lang=en&passkey=",
        "return_address_12":  "fuji@bungyjapan.com",
        "content_12":  "PLEASE NOTE THAT YOUR BOOKING IS NOT YET COMPLETE.<br><br>Please check the details of your booking as they appear below and, if correct, click on the link provided below to complete your booking.<br><br>If there is an error or you would like to make changes to your booking details, please DO NOT click on the link provided below. Simply delete this email and return to http://www.bungyjapan.com to make a new booking.<br><br><br>Jump Site:  Fuji City, Shizuoka (54 m)<br>First Jump ¥11,000<br><br>Booking Date :  {EMAIL_BOOK_DATE}<br><br>Booking Time : {EMAIL_BOOK_TIME}<br><br>No. of Jumpers : {EMAIL_JUMP_NUMBER}<br><br>Name : {EMAIL_CUSTOMER_NAME}<br><br><br>If the above information is correct, please click on the link below to complete your booking:<br><br><a href = '{EMAIL_CONFIRMATION_LINK}'>{EMAIL_CONFIRMATION_LINK}</a><br><BR>You cannot confirm the confirmed booking from this link.<BR> Please contact the call center as soon as possible to confirm your booking.<BR><br>Our Location:<br>〒417-0847 Yubinbango Fuji City, Shizuoka<br><br>PLEASE NOTE:  There is limited parking available on the bridge. If space is unavailable please park in the Odana Water Falls parking lot and walk to the bridge.   Phone:  0278-72-8133 Office Hours: 08：30～17：30   Check out our location on Google Maps!  https://goo.gl/maps/T163GuPRLnH2 ",
        "url_13":  "http://gifu.bungyjapan.com/bookings/thankyou.php?lang=en&passkey=",
        "return_address_13":  "gifu@bungyjapan.com",
        "content_13":  "Thank you very much for registering with Bungy Japan, however PLEASE NOTE THAT YOUR BOOKING IS NOT YET COMPLETE.<br> <br> Please check the details of your booking as they appear below and, if correct, click on the link provided below to complete your booking.<br> <br> If there is an error or you would like to make changes to your booking details, please DO NOT click on the link provided below. Simply delete this email and return to http://www.bungyjapan.com to make a new booking.<br> <br> <br> Booking Site: 〒505-0422 Shintabisokobashi, Kutami, Yaotsu-cho, Kamo-gun, Gifu-ken (215m) <br>First Jump ¥20,000<br>From February 1, 2020 First Jump ¥25,000 <br><br> Booking Date : {EMAIL_BOOK_DATE} <br> <br> Booking Time : {EMAIL_BOOK_TIME}<br> <br> No. of Jumpers : {EMAIL_JUMP_NUMBER}<br> <br> Name : {EMAIL_CUSTOMER_NAME}<br>                         <br> <br> If the above information is correct, please click on this link to complete your booking：<br> <br><a href = '{EMAIL_CONFIRMATION_LINK}'>{EMAIL_CONFIRMATION_LINK}</a><br><BR>You cannot confirm the confirmed booking from this link.<BR> Please contact the call center as soon as possible to confirm your booking.<BR><br> Our Location:  Shintabisokobashi, Kutami, Yaotsu-cho, Kamo-gun, Gifu-ken〒505-0422        <br>                       <br>                         〒505-0422          <br>                         岐阜県加茂郡八百津町久田見　新旅足橋    <br> 岐阜バンジー   <br> <br> Phone:  0278-72-8133<br> Office Hours: 08：30～17：30<br> <br> <br> Check out our location on Google Maps!<br> <br> <a href='https://goo.gl/maps/nvTq696Y2n7kmyXB9' target='_blank'> https://goo.gl/maps/nvTq696Y2n7kmyXB9 </a><br>"
        
	}
}
