{
	"jp": 
	{
	 	"menu":
		[
		    {"heading": "ご予約▼", "link" : "", "sub": 
                [   
                    {"heading": "竜神バンジー(100m)",   "link": "https://ryujin.bungyjapan.com/bookings/"    },
                    {"heading": "みなかみバンジー(42m)", "link": "https://minakami.bungyjapan.com/bookings/"  },
                    {"heading": "五木村バンジー(66m)",  "link": "https://itsuki.bungyjapan.com/bookings/"    },
                    {"heading": "富士バンジー（54m）",    "link": "https://fuji.bungyjapan.com/bookings/"      },
                    {"heading": "猿ヶ京バンジー(62m)",   "link": "https://sarugakyo.bungyjapan.com/bookings/" },
                    {"heading": "開運バンジー (30m)",   "link": "https://kaiun.bungyjapan.com/bookings/"     },
                    {"heading": "八ッ場バンジー (45m)",  "link": "https://yamba.bungyjapan.com/bookings/"     },
                    {"heading": "岐阜バンジー (215m)",  "link": "https://gifu.bungyjapan.com/bookings/"     }
                ]
            },
            {"heading": "バンジージャンプとは▼", "link" : "", "sub": 
                [   
                    {"heading": "Bungy Japanについて","link": "http://www.bungyjapan.com/about/"               },
                    {"heading": "バンジージャンプとは?",  "link": "http://www.bungyjapan.com/what-is-bungy-jump/"  },
                    {"heading": "ギャラリー",          "link": "http://www.bungyjapan.com/gallery/"             }
                ]
            },
            {"heading": "ブリッジ▼", "link" : "", "sub": 
                [   
                    {"heading": "竜神バンジー",     "link": "http://www.bungyjapan.com/ryujin/"     },
                    {"heading": "みなかみバンジー",  "link": "http://www.bungyjapan.com/minakami/"   },
                    {"heading": "五木村バンジー",   "link": "http://www.bungyjapan.com/itsukimura/" },
                    {"heading": "富士バンジー",     "link": "http://www.bungyjapan.com/fuji/"       },
                    {"heading": "猿ヶ京バンジー",    "link": "http://www.bungyjapan.com/sarugakyo/"  },
                    {"heading": "開運バンジー",     "link": "http://www.bungyjapan.com/kaiun/"      },
                    {"heading": "八ッ場バンジー",    "link": "http://www.bungyjapan.com/yamba/"      },
                    {"heading": "岐阜バンジー",  "link": "http://www.bungyjapan.com/gifu/"     }
                ]
            },
            {"heading": "Q&A", "link" : "http://www.bungyjapan.com/faq/", "sub": null},
            {"heading": "お問い合わせ", "link" : "http://www.bungyjapan.com/contact/", "sub": null}
		]
	},
    "en": 
	{
	 	"menu":
		[
		    {"heading": "Booking▼", "link" : "", "sub": 
                [   
                    {"heading": "Ryujin (100m)",   "link": "https://ryujin.bungyjapan.com/bookings/?lang=en"    },
                    {"heading": "Minakami (42m)",  "link": "https://minakami.bungyjapan.com/bookings/?lang=en"  },
                    {"heading": "Itsukimura (66m)","link": "https://itsuki.bungyjapan.com/bookings/?lang=en"    },
                    {"heading": "Fuji (54m)",      "link": "https://fuji.bungyjapan.com/bookings/?lang=en"      },
                    {"heading": "Sarugakyo (62m)", "link": "https://sarugakyo.bungyjapan.com/bookings/?lang=en" },
                    {"heading": "Kaiun (30m)",     "link": "https://kaiun.bungyjapan.com/bookings/?lang=en"     },
                    {"heading": "Yamba (45m)",    "link": "https://yamba.bungyjapan.com/bookings/?lang=en"     },
                    {"heading": "Gifu (215m)",    "link": "https://gifu.bungyjapan.com/bookings/?lang=en"     }
                ]
            },
            {"heading": "About▼", "link" : "", "sub": 
                [   
                    {"heading": "About Bungy Japan",   "link": "http://www.bungyjapan.com/about/?lang=en"                    },
                    {"heading": "What is Bungy Jumping?",  "link": "http://www.bungyjapan.com/what-is-bungy-jump/?lang=en"   },
                    {"heading": "Gallery","link": "http://www.bungyjapan.com/gallery/?lang=en"                               }
                ]
            },
            {"heading": "Our Bridges▼", "link" : "", "sub": 
                [   
                    {"heading": "Ryujin",   "link": "http://www.bungyjapan.com/ryujin/?lang=en"       },
                    {"heading": "Minakami",  "link": "http://www.bungyjapan.com/minakami/?lang=en"    },
                    {"heading": "Itsukimura","link": "http://www.bungyjapan.com/itsukimura/?lang=en"  },
                    {"heading": "Fuji",      "link": "http://www.bungyjapan.com/fuji/?lang=en"        },
                    {"heading": "Sarugakyo", "link": "http://www.bungyjapan.com/sarugakyo/?lang=en"   },
                    {"heading": "Kaiun",     "link": "http://www.bungyjapan.com/kaiun/?lang=en"       },
                    {"heading": "Yamba",     "link": "http://www.bungyjapan.com/yamba/?lang=en"       },
                    {"heading": "Gifu",     "link": "http://www.bungyjapan.com/gifu/?lang=en"       }

                ]
            },
            {"heading": "FAQ",      "link" : "http://www.bungyjapan.com/faq/?lang=en",       "sub": null},
            {"heading": "Contact",  "link" : "http://www.bungyjapan.com/contact/?lang=en",   "sub": null}
		]
	}
}