9	2014-04-01 08:53:41	1	1	Yu	I	0
8	2014-04-01 08:54:23	1	1	Ayumi	I	0
9	2014-04-01 08:55:12	1	1	Yu	I	0
3	2014-04-01 08:57:10	1	1	Matt	I	0
8	2014-04-01 18:00:49	1	1	Ayumi	I	0
9	2014-04-01 18:00:54	1	1	Yu	I	0
3	2014-04-01 18:01:58	1	1	Matt	I	0
5	2014-04-01 19:48:45	1	1	Hiroshi	I	0
9	2014-04-02 08:56:20	1	1	Yu	I	0
3	2014-04-02 08:56:24	1	1	Matt	I	0
8	2014-04-02 08:56:30	1	1	Ayumi	I	0
3	2014-04-02 18:43:09	1	1	Matt	I	0
8	2014-04-02 19:35:13	1	1	Ayumi	I	0
9	2014-04-02 19:36:06	1	1	Yu	I	0
5	2014-04-02 20:40:56	1	1	Hiroshi	I	0
3	2014-04-03 08:50:21	1	1	Matt	I	0
9	2014-04-03 08:56:16	1	1	Yu	I	0
8	2014-04-03 08:56:50	1	1	Ayumi	I	0
3	2014-04-03 18:24:35	1	1	Matt	I	0
9	2014-04-03 18:35:38	1	1	Yu	I	0
8	2014-04-03 18:36:25	1	1	Ayumi	I	0
5	2014-04-03 19:37:20	1	1	Hiroshi	I	0
8	2014-04-04 08:57:42	1	1	Ayumi	I	0
9	2014-04-04 08:58:36	1	1	Yu	I	0
3	2014-04-04 18:25:48	1	1	Matt	I	0
9	2014-04-04 18:25:54	1	1	Yu	I	0
8	2014-04-04 18:43:34	1	1	Ayumi	I	0
8	2014-04-04 18:44:02	1	1	Ayumi	I	0
5	2014-04-07 07:33:03	1	1	Hiroshi	I	0
3	2014-04-07 08:45:22	1	1	Matt	I	0
9	2014-04-07 08:55:04	1	1	Yu	I	0
9	2014-04-07 18:15:35	1	1	Yu	I	0
3	2014-04-07 18:18:42	1	1	Matt	I	0
5	2014-04-11 18:24:15	1	1	Hiroshi	I	0
5	2014-04-12 08:17:17	1	1	Hiroshi	I	0
9	2014-04-12 08:38:14	1	1	Yu	I	0
17	2014-04-12 08:39:11	1	1	Takeshi	I	0
24	2014-04-12 08:39:21	1	1	Jeremie	I	0
14	2014-04-12 08:39:27	1	1	Ethan	I	0
3	2014-04-12 08:51:13	1	1	Matt	I	0
16	2014-04-12 08:51:36	1	1	Yuto	I	0
19	2014-04-12 08:51:43	1	1	Masaki	I	0
25	2014-04-12 08:51:46	1	1	Akira	I	0
16	2014-04-12 19:26:24	1	1	Yuto	I	0
14	2014-04-12 19:26:28	1	1	Ethan	I	0
24	2014-04-12 19:26:49	1	1	Jeremie	I	0
25	2014-04-12 19:26:55	1	1	Akira	I	0
19	2014-04-12 19:27:05	1	1	Masaki	I	0
17	2014-04-12 19:28:06	1	1	Takeshi	I	0
3	2014-04-12 19:31:04	1	1	Matt	I	0
9	2014-04-12 19:31:11	1	1	Yu	I	0
1	2014-04-12 19:31:16	1	1	Daisuke	I	0
3	2014-04-12 19:32:02	1	1	Matt	I	0
18	2014-04-12 19:41:53	1	1	Ryoji	I	0
5	2014-04-12 21:39:22	1	1	Hiroshi	I	0
5	2014-04-13 08:16:08	1	1	Hiroshi	I	0
17	2014-04-13 08:32:12	1	1	Takeshi	I	0
14	2014-04-13 08:40:53	1	1	Ethan	I	0
13	2014-04-13 08:41:14	1	1	Nana	I	0
21	2014-04-13 08:41:30	1	1	Mika	I	0
9	2014-04-13 08:44:50	1	1	Yu	I	0
3	2014-04-13 08:48:50	1	1	Matt	I	0
16	2014-04-13 08:48:54	1	1	Yuto	I	0
25	2014-04-13 08:49:14	1	1	Akira	I	0
24	2014-04-13 08:49:18	1	1	Jeremie	I	0
19	2014-04-13 08:49:28	1	1	Masaki	I	0
1	2014-04-13 08:49:31	1	1	Daisuke	I	0
18	2014-04-13 08:53:22	1	1	Ryoji	I	0
22	2014-04-13 08:53:46	1	1	Rina T	I	0
14	2014-04-13 17:47:08	1	1	Ethan	I	0
21	2014-04-13 17:47:50	1	1	Mika	I	0
13	2014-04-13 17:47:59	1	1	Nana	I	0
22	2014-04-13 17:48:33	1	1	Rina T	I	0
16	2014-04-13 17:49:06	1	1	Yuto	I	0
25	2014-04-13 17:49:41	1	1	Akira	I	0
18	2014-04-13 17:50:07	1	1	Ryoji	I	0
17	2014-04-13 17:50:27	1	1	Takeshi	I	0
1	2014-04-13 17:50:43	1	1	Daisuke	I	0
19	2014-04-13 17:51:23	1	1	Masaki	I	0
24	2014-04-13 17:53:52	1	1	Jeremie	I	0
3	2014-04-13 18:54:39	1	1	Matt	I	0
9	2014-04-13 18:54:57	1	1	Yu	I	0
5	2014-04-13 18:58:57	1	1	Hiroshi	I	0
14	2014-04-14 08:36:57	1	1	Ethan	I	0
5	2014-04-14 08:39:41	1	1	Hiroshi	I	0
17	2014-04-14 08:42:29	1	1	Takeshi	I	0
13	2014-04-14 08:43:01	1	1	Nana	I	0
8	2014-04-14 08:43:16	1	1	Ayumi	I	0
9	2014-04-14 08:43:21	1	1	Yu	I	0
21	2014-04-14 08:43:59	1	1	Mika	I	0
25	2014-04-14 08:46:12	1	1	Akira	I	0
19	2014-04-14 08:47:15	1	1	Masaki	I	0
24	2014-04-14 08:52:35	1	1	Jeremie	I	0
1	2014-04-14 08:52:40	1	1	Daisuke	I	0
3	2014-04-14 08:53:14	1	1	Matt	I	0
22	2014-04-14 08:53:44	1	1	Rina T	I	0
22	2014-04-14 08:53:46	1	1	Rina T	I	0
18	2014-04-14 08:54:41	1	1	Ryoji	I	0
19	2014-04-14 17:53:15	1	1	Masaki	I	0
22	2014-04-14 18:03:12	1	1	Rina T	I	0
17	2014-04-14 18:04:23	1	1	Takeshi	I	0
24	2014-04-14 18:04:28	1	1	Jeremie	I	0
18	2014-04-14 18:05:04	1	1	Ryoji	I	0
21	2014-04-14 18:05:09	1	1	Mika	I	0
1	2014-04-14 18:05:15	1	1	Daisuke	I	0
14	2014-04-14 18:05:18	1	1	Ethan	I	0
13	2014-04-14 18:05:26	1	1	Nana	I	0
25	2014-04-14 18:05:31	1	1	Akira	I	0
3	2014-04-14 18:13:33	1	1	Matt	I	0
8	2014-04-14 18:17:00	1	1	Ayumi	I	0
9	2014-04-14 18:17:24	1	1	Yu	I	0
5	2014-04-14 21:22:47	1	1	Hiroshi	I	0
5	2014-04-15 08:26:05	1	1	Hiroshi	I	0
17	2014-04-15 08:38:14	1	1	Takeshi	I	0
19	2014-04-15 08:42:18	1	1	Masaki	I	0
21	2014-04-15 08:44:52	1	1	Mika	I	0
14	2014-04-15 08:45:10	1	1	Ethan	I	0
23	2014-04-15 08:45:29	1	1	Oli	I	0
8	2014-04-15 08:46:51	1	1	Ayumi	I	0
16	2014-04-15 08:46:57	1	1	Yuto	I	0
22	2014-04-15 08:47:03	1	1	Rina T	I	0
9	2014-04-15 08:48:01	1	1	Yu	I	0
13	2014-04-15 08:49:27	1	1	Nana	I	0
18	2014-04-15 08:49:34	1	1	Ryoji	I	0
25	2014-04-15 08:49:42	1	1	Akira	I	0
16	2014-04-22 08:29:17	1	1	Yuto	I	0
17	2014-04-22 08:42:25	1	1	Takeshi	I	0
17	2014-04-22 08:42:26	1	1	Takeshi	I	0
14	2014-04-22 17:28:03	1	1	Ethan	I	0
21	2014-04-22 17:33:51	1	1	Mika	I	0
13	2014-04-22 17:34:00	1	1	Nana	I	0
17	2014-04-22 17:35:34	1	1	Takeshi	I	0
3	2014-04-22 17:36:35	1	1	Matt	I	0
5	2014-04-22 20:17:11	1	1	Hiroshi	I	0
5	2014-04-23 08:17:28	1	1	Hiroshi	I	0
13	2014-04-23 08:19:19	1	1	Nana	I	0
21	2014-04-23 08:19:27	1	1	Mika	I	0
14	2014-04-23 08:19:30	1	1	Ethan	I	0
15	2014-04-23 08:19:38	1	1	Marc	I	0
1	2014-04-23 08:23:35	1	1	Daisuke	I	0
9	2014-04-23 08:23:59	1	1	Yu	I	0
17	2014-04-23 08:44:40	1	1	Takeshi	I	0
8	2014-04-23 08:52:33	1	1	Ayumi	I	0
14	2014-04-23 17:30:11	1	1	Ethan	I	0
21	2014-04-23 17:45:28	1	1	Mika	I	0
17	2014-04-23 17:47:57	1	1	Takeshi	I	0
1	2014-04-23 17:48:03	1	1	Daisuke	I	0
8	2014-04-23 17:55:59	1	1	Ayumi	I	0
14	2014-04-24 08:42:59	1	1	Ethan	I	0
17	2014-04-24 08:43:50	1	1	Takeshi	I	0
22	2014-04-24 08:46:12	1	1	Rina T	I	0
9	2014-04-24 08:47:12	1	1	Yu	I	0
24	2014-04-24 08:47:43	1	1	Jeremie	I	0
5	2014-04-24 08:47:49	1	1	Hiroshi	I	0
25	2014-04-24 08:49:43	1	1	Akira	I	0
1	2014-04-24 08:51:06	1	1	Daisuke	I	0
8	2014-04-24 08:58:05	1	1	Ayumi	I	0
14	2014-04-24 17:42:40	1	1	Ethan	I	0
24	2014-04-24 17:42:43	1	1	Jeremie	I	0
22	2014-04-24 17:42:54	1	1	Rina T	I	0
25	2014-04-24 17:44:16	1	1	Akira	I	0
25	2014-04-24 17:44:17	1	1	Akira	I	0
17	2014-04-24 17:44:57	1	1	Takeshi	I	0
1	2014-04-24 18:14:38	1	1	Daisuke	I	0
8	2014-04-24 18:36:30	1	1	Ayumi	I	0
5	2014-04-25 08:29:40	1	1	Hiroshi	I	0
3	2014-04-25 08:43:41	1	1	Matt	I	0
21	2014-04-25 08:45:40	1	1	Mika	I	0
24	2014-04-25 08:45:52	1	1	Jeremie	I	0
22	2014-04-25 08:48:12	1	1	Rina T	I	0
18	2014-04-25 08:48:17	1	1	Ryoji	I	0
25	2014-04-25 08:53:40	1	1	Akira	I	0
24	2014-04-25 17:24:03	1	1	Jeremie	I	0
21	2014-04-25 17:26:11	1	1	Mika	I	0
25	2014-04-25 17:26:22	1	1	Akira	I	0
18	2014-04-25 17:26:29	1	1	Ryoji	I	0
22	2014-04-25 17:26:32	1	1	Rina T	I	0
3	2014-04-25 17:45:59	1	1	Matt	I	0
5	2014-04-25 19:11:39	1	1	Hiroshi	I	0
9	2014-04-26 07:26:50	1	1	Yu	I	0
21	2014-04-26 07:27:03	1	1	Mika	I	0
14	2014-04-26 07:27:17	1	1	Ethan	I	0
22	2014-04-26 07:27:22	1	1	Rina T	I	0
15	2014-04-26 07:27:25	1	1	Marc	I	0
1	2014-04-26 07:27:41	1	1	Daisuke	I	0
13	2014-04-26 07:30:34	1	1	Nana	I	0
5	2014-04-26 07:30:46	1	1	Hiroshi	I	0
24	2014-04-26 07:31:05	1	1	Jeremie	I	0
25	2014-04-26 07:31:28	1	1	Akira	I	0
18	2014-04-26 07:31:46	1	1	Ryoji	I	0
3	2014-04-26 07:43:35	1	1	Matt	I	0
17	2014-04-26 07:43:40	1	1	Takeshi	I	0
1	2014-04-26 17:41:36	1	1	Daisuke	I	0
21	2014-04-26 17:42:13	1	1	Mika	I	0
22	2014-04-26 17:42:17	1	1	Rina T	I	0
22	2014-04-26 17:42:20	1	1	Rina T	I	0
17	2014-04-26 17:43:39	1	1	Takeshi	I	0
14	2014-04-26 17:47:38	1	1	Ethan	I	0
9	2014-04-26 18:27:46	1	1	Yu	I	0
3	2014-04-26 18:28:02	1	1	Matt	I	0
5	2014-04-26 21:03:45	1	1	Hiroshi	I	0
13	2014-04-27 07:27:51	1	1	Nana	I	0
1	2014-04-27 07:27:58	1	1	Daisuke	I	0
21	2014-04-27 07:28:06	1	1	Mika	I	0
14	2014-04-27 07:28:10	1	1	Ethan	I	0
18	2014-04-27 07:33:06	1	1	Ryoji	I	0
25	2014-04-27 07:33:13	1	1	Akira	I	0
25	2014-04-27 07:33:14	1	1	Akira	I	0
22	2014-04-27 07:33:20	1	1	Rina T	I	0
9	2014-04-27 07:33:28	1	1	Yu	I	0
17	2014-04-27 07:39:49	1	1	Takeshi	I	0
24	2014-04-27 07:41:46	1	1	Jeremie	I	0
3	2014-04-27 07:54:49	1	1	Matt	I	0
25	2014-04-27 18:05:56	1	1	Akira	I	0
14	2014-04-27 18:06:08	1	1	Ethan	I	0
22	2014-04-27 18:08:58	1	1	Rina T	I	0
21	2014-04-27 18:09:19	1	1	Mika	I	0
1	2014-04-27 18:09:50	1	1	Daisuke	I	0
17	2014-04-27 18:11:01	1	1	Takeshi	I	0
18	2014-04-27 18:17:17	1	1	Ryoji	I	0
3	2014-04-27 18:34:38	1	1	Matt	I	0
9	2014-04-27 18:34:43	1	1	Yu	I	0
5	2014-04-27 20:19:27	1	1	Hiroshi	I	0
13	2014-04-28 08:30:40	1	1	Nana	I	0
3	2014-04-15 08:52:39	1	1	Matt	I	0
24	2014-04-15 09:06:32	1	1	Jeremie	I	0
1	2014-04-15 09:12:16	1	1	Daisuke	I	0
19	2014-04-15 17:08:21	1	1	Masaki	I	0
16	2014-04-15 17:19:32	1	1	Yuto	I	0
21	2014-04-15 17:20:56	1	1	Mika	I	0
25	2014-04-15 17:21:13	1	1	Akira	I	0
14	2014-04-15 17:21:23	1	1	Ethan	I	0
17	2014-04-15 17:21:51	1	1	Takeshi	I	0
22	2014-04-15 17:21:59	1	1	Rina T	I	0
18	2014-04-15 17:22:39	1	1	Ryoji	I	0
1	2014-04-15 17:27:27	1	1	Daisuke	I	0
13	2014-04-15 17:27:58	1	1	Nana	I	0
9	2014-04-15 17:44:11	1	1	Yu	I	0
5	2014-04-15 19:24:10	1	1	Hiroshi	I	0
8	2014-04-15 19:26:49	1	1	Ayumi	I	0
3	2014-04-15 19:45:58	1	1	Matt	I	0
5	2014-04-16 08:46:08	1	1	Hiroshi	I	0
8	2014-04-17 09:01:30	1	1	Ayumi	I	0
17	2014-04-17 09:18:56	1	1	Takeshi	I	0
25	2014-04-17 09:24:20	1	1	Akira	I	0
14	2014-04-17 09:24:58	1	1	Ethan	I	0
17	2014-04-17 12:48:10	1	1	Takeshi	I	0
25	2014-04-17 12:48:13	1	1	Akira	I	0
14	2014-04-17 12:51:03	1	1	Ethan	I	0
8	2014-04-17 18:45:32	1	1	Ayumi	I	0
5	2014-04-18 08:28:06	1	1	Hiroshi	I	0
3	2014-04-18 08:45:57	1	1	Matt	I	0
22	2014-04-18 08:46:14	1	1	Rina T	I	0
21	2014-04-18 08:47:50	1	1	Mika	I	0
24	2014-04-18 08:48:45	1	1	Jeremie	I	0
16	2014-04-18 08:58:24	1	1	Yuto	I	0
21	2014-04-18 17:46:11	1	1	Mika	I	0
22	2014-04-18 17:46:17	1	1	Rina T	I	0
22	2014-04-18 17:46:19	1	1	Rina T	I	0
16	2014-04-18 17:46:24	1	1	Yuto	I	0
3	2014-04-18 17:54:34	1	1	Matt	I	0
5	2014-04-18 21:00:17	1	1	Hiroshi	I	0
17	2014-04-19 07:43:40	1	1	Takeshi	I	0
22	2014-04-19 07:43:48	1	1	Rina T	I	0
22	2014-04-19 07:43:50	1	1	Rina T	I	0
24	2014-04-19 07:44:15	1	1	Jeremie	I	0
21	2014-04-19 07:44:28	1	1	Mika	I	0
9	2014-04-19 07:49:27	1	1	Yu	I	0
16	2014-04-19 07:49:36	1	1	Yuto	I	0
1	2014-04-19 07:51:59	1	1	Daisuke	I	0
3	2014-04-19 07:53:50	1	1	Matt	I	0
24	2014-04-19 18:11:57	1	1	Jeremie	I	0
1	2014-04-19 18:12:38	1	1	Daisuke	I	0
21	2014-04-19 18:12:51	1	1	Mika	I	0
16	2014-04-19 18:14:10	1	1	Yuto	I	0
17	2014-04-19 18:15:01	1	1	Takeshi	I	0
22	2014-04-19 18:15:11	1	1	Rina T	I	0
22	2014-04-19 18:15:12	1	1	Rina T	I	0
18	2014-04-19 18:18:19	1	1	Ryoji	I	0
13	2014-04-19 18:18:24	1	1	Nana	I	0
9	2014-04-19 18:26:18	1	1	Yu	I	0
3	2014-04-19 18:36:39	1	1	Matt	I	0
5	2014-04-19 20:26:01	1	1	Hiroshi	I	0
1	2014-04-20 07:28:53	1	1	Daisuke	I	0
24	2014-04-20 07:37:15	1	1	Jeremie	I	0
17	2014-04-20 07:41:20	1	1	Takeshi	I	0
22	2014-04-20 07:52:30	1	1	Rina T	I	0
21	2014-04-20 07:54:16	1	1	Mika	I	0
3	2014-04-20 07:54:36	1	1	Matt	I	0
9	2014-04-20 07:55:37	1	1	Yu	I	0
16	2014-04-20 07:55:40	1	1	Yuto	I	0
24	2014-04-20 17:51:18	1	1	Jeremie	I	0
22	2014-04-20 17:51:22	1	1	Rina T	I	0
16	2014-04-20 17:55:34	1	1	Yuto	I	0
18	2014-04-20 17:55:47	1	1	Ryoji	I	0
25	2014-04-20 17:55:56	1	1	Akira	I	0
21	2014-04-20 17:56:12	1	1	Mika	I	0
1	2014-04-20 17:56:23	1	1	Daisuke	I	0
13	2014-04-20 17:56:29	1	1	Nana	I	0
3	2014-04-20 17:57:22	1	1	Matt	I	0
17	2014-04-20 17:57:32	1	1	Takeshi	I	0
9	2014-04-20 18:16:08	1	1	Yu	I	0
5	2014-04-20 18:51:58	1	1	Hiroshi	I	0
9	2014-04-21 08:16:11	1	1	Yu	I	0
5	2014-04-21 08:16:54	1	1	Hiroshi	I	0
24	2014-04-21 08:39:16	1	1	Jeremie	I	0
22	2014-04-21 08:43:02	1	1	Rina T	I	0
3	2014-04-21 08:50:34	1	1	Matt	I	0
16	2014-04-21 08:50:43	1	1	Yuto	I	0
1	2014-04-21 08:53:59	1	1	Daisuke	I	0
24	2014-04-21 17:28:05	1	1	Jeremie	I	0
22	2014-04-21 17:44:03	1	1	Rina T	I	0
1	2014-04-21 17:46:21	1	1	Daisuke	I	0
16	2014-04-21 17:48:55	1	1	Yuto	I	0
25	2014-04-21 18:04:43	1	1	Akira	I	0
13	2014-04-21 18:04:50	1	1	Nana	I	0
18	2014-04-21 18:06:06	1	1	Ryoji	I	0
3	2014-04-21 18:17:35	1	1	Matt	I	0
5	2014-04-21 21:58:21	1	1	Hiroshi	I	0
13	2014-04-22 08:21:11	1	1	Nana	I	0
14	2014-04-22 08:21:17	1	1	Ethan	I	0
21	2014-04-22 08:21:32	1	1	Mika	I	0
3	2014-04-22 08:22:07	1	1	Matt	I	0
9	2014-04-28 08:33:34	1	1	Yu	I	0
18	2014-04-28 08:35:13	1	1	Ryoji	I	0
25	2014-04-28 08:35:54	1	1	Akira	I	0
22	2014-04-28 08:44:24	1	1	Rina T	I	0
1	2014-04-28 08:51:01	1	1	Daisuke	I	0
24	2014-04-28 08:51:05	1	1	Jeremie	I	0
3	2014-04-28 08:54:13	1	1	Matt	I	0
24	2014-04-28 18:02:19	1	1	Jeremie	I	0
25	2014-04-28 18:04:22	1	1	Akira	I	0
1	2014-04-28 18:07:33	1	1	Daisuke	I	0
13	2014-04-28 18:07:39	1	1	Nana	I	0
22	2014-04-28 18:07:44	1	1	Rina T	I	0
18	2014-04-28 18:07:56	1	1	Ryoji	I	0
9	2014-04-28 18:13:39	1	1	Yu	I	0
3	2014-04-28 18:13:52	1	1	Matt	I	0
5	2014-04-28 20:37:45	1	1	Hiroshi	I	0
14	2014-04-29 07:24:47	1	1	Ethan	I	0
21	2014-04-29 07:25:07	1	1	Mika	I	0
15	2014-04-29 07:25:23	1	1	Marc	I	0
13	2014-04-29 07:25:36	1	1	Nana	I	0
18	2014-04-29 07:25:45	1	1	Ryoji	I	0
25	2014-04-29 07:25:54	1	1	Akira	I	0
24	2014-04-29 07:29:48	1	1	Jeremie	I	0
5	2014-04-29 07:33:56	1	1	Hiroshi	I	0
17	2014-04-29 07:40:49	1	1	Takeshi	I	0
22	2014-04-29 07:44:06	1	1	Rina T	I	0
1	2014-04-29 07:51:33	1	1	Daisuke	I	0
3	2014-04-29 07:54:29	1	1	Matt	I	0
9	2014-04-29 07:56:50	1	1	Yu	I	0
14	2014-04-29 17:34:25	1	1	Ethan	I	0
24	2014-04-29 17:42:10	1	1	Jeremie	I	0
15	2014-04-29 17:43:36	1	1	Marc	I	0
21	2014-04-29 17:44:14	1	1	Mika	I	0
1	2014-04-29 17:46:06	1	1	Daisuke	I	0
25	2014-04-29 17:46:12	1	1	Akira	I	0
18	2014-04-29 17:46:30	1	1	Ryoji	I	0
22	2014-04-29 17:46:33	1	1	Rina T	I	0
17	2014-04-29 17:47:27	1	1	Takeshi	I	0
13	2014-04-29 17:47:43	1	1	Nana	I	0
3	2014-04-29 17:49:05	1	1	Matt	I	0
9	2014-04-29 17:55:40	1	1	Yu	I	0
5	2014-04-29 19:05:20	1	1	Hiroshi	I	0
14	2014-04-30 08:22:44	1	1	Ethan	I	0
13	2014-04-30 08:23:00	1	1	Nana	I	0
21	2014-04-30 08:23:29	1	1	Mika	I	0
15	2014-04-30 08:23:41	1	1	Marc	I	0
9	2014-04-30 08:35:17	1	1	Yu	I	0
17	2014-04-30 08:43:33	1	1	Takeshi	I	0
9	2014-04-30 08:44:07	1	1	Yu	I	0
3	2014-04-30 08:47:16	1	1	Matt	I	0
9	2014-04-30 17:43:55	1	1	Yu	I	0
17	2014-04-30 17:44:01	1	1	Takeshi	I	0
3	2014-04-30 17:44:19	1	1	Matt	I	0
21	2014-04-30 17:48:22	1	1	Mika	I	0
5	2014-04-30 19:05:46	1	1	Hiroshi	I	0
